<?xml version="1.0" encoding="UTF-8"?>
<svg width="38px" height="38px" viewBox="0 0 38 38" version="1.1" xmlns="http://www.w3.org/2000/svg" xmlns:xlink="http://www.w3.org/1999/xlink">
    <!-- Generator: Sketch 57 (83077) - https://sketch.com -->
    <title>- Youtube</title>
    <desc>Created with Sketch.</desc>
    <defs>
        <path d="M16.6766994,6 L7.32330062,6 C5.48813765,6 4,7.57704424 4,9.52184632 L4,14.4781537 C4,16.4229558 5.48813765,18 7.32330062,18 L16.6766994,18 C18.5118624,18 20,16.4229558 20,14.4781537 L20,9.52184632 C20,7.57704424 18.5118624,6 16.6766994,6 L16.6766994,6 Z M14.4297589,12.2391453 L10.0568521,14.4506232 C9.93975524,14.5102041 9.80521023,14.4185728 9.80521023,14.2805095 L9.80521023,9.72442131 C9.80521023,9.58635803 9.94402036,9.49472675 10.0611172,9.55882756 L14.434024,11.9079578 C14.5643039,11.9769895 14.559651,12.1746336 14.4297589,12.2391453 L14.4297589,12.2391453 L14.4297589,12.2391453 Z" id="path-1"></path>
    </defs>
    <g id="Templates" stroke="none" stroke-width="1" fill="none" fill-rule="evenodd">
        <g id="Grid-1366px-(Desktop-Default)" transform="translate(-1274.000000, -3185.000000)">
            <g id="--Youtube" transform="translate(1275.000000, 3186.000000)">
                <circle id="Oval-Copy-4" stroke="#FFFFFF" stroke-width="2" cx="18" cy="18" r="18"></circle>
                <g id="2.-Atoms/Icons/6.-Social/ic_youtube" transform="translate(6.000000, 6.000000)">
                    <g id="2.-Atoms/Icons/guide"></g>
                    <mask id="mask-2" fill="white">
                        <use xlink:href="#path-1"></use>
                    </mask>
                    <use id="Icon" fill="#909090" fill-rule="nonzero" xlink:href="#path-1"></use>
                    <g id="1.-Quarks/Color/Basic/06.-Basic" mask="url(#mask-2)" fill="#FFFFFF" fill-rule="nonzero">
                        <rect id="Rectangle" x="0" y="0" width="24" height="24"></rect>
                    </g>
                </g>
            </g>
        </g>
    </g>
</svg>